    0x46, 0x4f, 0x4d, 0x42, 0x01, 0x00, 0x00, 0x00, 0x35, 0x11, 0x00, 0x00, 0x86, 0x6a, 0x00, 0x00,
    0x44, 0x53, 0x00, 0x01, 0x1a, 0x7d, 0xda, 0x54, 0x98, 0x5e, 0xb3, 0x00, 0x01, 0x06, 0x18, 0x42,
    0x10, 0x11, 0x10, 0x22, 0x21, 0x30, 0x34, 0x32, 0x0b, 0x03, 0x63, 0x04, 0x8a, 0x0b, 0x21, 0x07,
    0x10, 0x12, 0x07, 0x85, 0x12, 0x02, 0xa1, 0xfe, 0x04, 0xf2, 0x2b, 0x00, 0xa1, 0x43, 0x01, 0x32,
    0x05, 0x18, 0x14, 0xe0, 0x14, 0x41, 0x04, 0xbd, 0x0a, 0xb0, 0x29, 0xc0, 0xa4, 0x00, 0x8b, 0x02,
    0xb4, 0x0b, 0xb0, 0x2c, 0x40, 0xb7, 0x00, 0xe9, 0xb0, 0x44, 0x24, 0x38, 0x4a, 0x0c, 0x38, 0x4a,
    0x27, 0xb6, 0x70, 0xc3, 0x06, 0x2f, 0x14, 0x45, 0x33, 0x88, 0x92, 0xa0, 0x72, 0x01, 0xbe, 0x11,
    0x04, 0x5e, 0xae, 0x00, 0xc9, 0x13, 0xd0, 0xca, 0x1a, 0x16, 0x60, 0x5d, 0x80, 0xec, 0x21, 0x50,
    0xa9, 0x43, 0x40, 0xc9, 0x19, 0x02, 0x6a, 0x00, 0xad, 0x4e, 0x40, 0xf8, 0x95, 0x4e, 0x09, 0x49,
    0x10, 0xce, 0x58, 0xc5, 0xe3, 0x6b, 0x16, 0x4d, 0xcf, 0x49, 0xce, 0x31, 0xe4, 0x78, 0x5c, 0xe8,
    0x41, 0xf0, 0x90, 0xa3, 0x45, 0xc5, 0x1a, 0x30, 0x3a, 0x12, 0x84, 0x14, 0x0c, 0x08, 0x3d, 0x60,
    0x78, 0x28, 0x47, 0x77, 0x24, 0xa1, 0x3c, 0xc3, 0xb6, 0x11, 0x84, 0x71, 0x2a, 0x71, 0xce, 0x3a,
    0xca, 0xf1, 0x9c, 0x9a, 0xa7, 0x73, 0x4c, 0x07, 0x74, 0x48, 0x46, 0x39, 0x6e, 0xe0, 0x32, 0x02,
    0x2e, 0xf2, 0x69, 0x60, 0x02, 0xc9, 0x3f, 0x24, 0x48, 0x16, 0x0c, 0x4a, 0xc2, 0xe8, 0xa9, 0x0b,
    0x08, 0xfd, 0xff, 0x81, 0xf9, 0xd9, 0x80, 0x8d, 0xc6, 0x10, 0xa5, 0x8d, 0x13, 0x3d, 0xc4, 0x53,
    0x39, 0xb2, 0x13, 0x39, 0x90, 0x43, 0x63, 0xa8, 0xa7, 0x74, 0x38, 0x85, 0xdd, 0x01, 0x84, 0x1a,
    0xa3, 0x39, 0x28, 0x12, 0x6e, 0x7c, 0x68, 0x89, 0xb0, 0x3a, 0x09, 0xc4, 0x7e, 0x17, 0xb0, 0xf0,
    0x61, 0x09, 0xe3, 0x7c, 0x3d, 0x7c, 0x8b, 0x86, 0x11, 0x5a, 0x41, 0x70, 0x1a, 0xc4, 0x51, 0x44,
    0x09, 0xc3, 0xf0, 0x8c, 0x19, 0xe8, 0xb9, 0x80, 0x21, 0x85, 0x09, 0x7a, 0x02, 0x41, 0xce, 0x93,
    0x61, 0x19, 0xe2, 0x0c, 0x38, 0x56, 0x8c, 0x50, 0x21, 0x31, 0x03, 0x09, 0x7e, 0x02, 0x5d, 0x63,
    0xc8, 0x33, 0x10, 0x99, 0xf2, 0x09, 0x04, 0x89, 0x1e, 0x25, 0xb8, 0x71, 0x8d, 0xca, 0xc6, 0x74,
    0x36, 0xb8, 0x81, 0x99, 0x20, 0xce, 0xe1, 0x61, 0x64, 0x40, 0x68, 0x02, 0xf1, 0x63, 0x87, 0x4f,
    0x60, 0xf7, 0x02, 0xbc, 0x0d, 0x51, 0x10, 0x95, 0xdd, 0x35, 0xa4, 0x0d, 0x42, 0x28, 0x6d, 0x09,
    0xb0, 0x36, 0x59, 0x9d, 0x08, 0x5e, 0x08, 0xa2, 0x1c, 0x6f, 0x84, 0x67, 0x82, 0x10, 0x51, 0x02,
    0x45, 0xa8, 0x10, 0x53, 0x28, 0x71, 0x1b, 0x13, 0xa0, 0x11, 0x42, 0x48, 0x86, 0x0b, 0xe1, 0x79,
    0x87, 0xb1, 0xfd, 0x41, 0x90, 0x60, 0xe7, 0x01, 0xfd, 0x08, 0x2c, 0x09, 0x44, 0x46, 0xb6, 0x94,
    0x80, 0x9c, 0x14, 0x3c, 0x1c, 0x0f, 0xa0, 0xf9, 0x99, 0x69, 0x54, 0x4c, 0x02, 0xa0, 0x34, 0x80,
    0x48, 0xd4, 0x59, 0x84, 0x12, 0x58, 0xca, 0xc9, 0x80, 0x5c, 0x1f, 0x3c, 0x92, 0x03, 0x3c, 0x75,
    0xdf, 0x0d, 0xce, 0xcc, 0x5f, 0x13, 0x6f, 0xc1, 0x67, 0x04, 0x3e, 0x06, 0x0f, 0xf5, 0x10, 0x02,
    0x1e, 0x21, 0x3b, 0x24, 0x18, 0x10, 0xef, 0xfd, 0x56, 0x40, 0xe6, 0x62, 0x82, 0xff, 0x7f, 0x40,
    0x1f, 0x14, 0x9e, 0x0f, 0xc0, 0x32, 0xcc, 0x53, 0xf6, 0x1c, 0x2a, 0x1e, 0x1b, 0xe2, 0x4a, 0xc0,
    0xc7, 0x72, 0x54, 0xec, 0x18, 0xc1, 0x46, 0xc7, 0x47, 0xe1, 0xb3, 0xc3, 0xf9, 0x16, 0x0b, 0xa2,
    0x00, 0x10, 0x92, 0x75, 0x8c, 0x40, 0xcf, 0xfb, 0x08, 0x03, 0xbe, 0x34, 0x34, 0x7b, 0x39, 0x21,
    0x04, 0xaf, 0x03, 0xbe, 0x31, 0xf8, 0x1c, 0x63, 0x79, 0x07, 0x11, 0x10, 0xc1, 0xbf, 0x2f, 0xe0,
    0x8e, 0x20, 0xc0, 0x49, 0xea, 0xf9, 0x03, 0x25, 0xee, 0x08, 0x02, 0xe8, 0xfc, 0xff, 0x1f, 0x41,
    0x80, 0x25, 0xc8, 0xa1, 0xbc, 0x3f, 0x84, 0x78, 0x7d, 0x38, 0xd5, 0x57, 0x90, 0xc8, 0xef, 0x1f,
    0xc6, 0x8f, 0x12, 0x28, 0x8a, 0xd1, 0x1e, 0x20, 0x8c, 0x12, 0x27, 0xc2, 0x19, 0x3f, 0x82, 0xd8,
    0xd9, 0x59, 0x44, 0x10, 0x3e, 0x14, 0xf8, 0x32, 0xf2, 0xe0, 0xe3, 0x53, 0x43, 0x90, 0xa0, 0x8f,
    0x20, 0x2c, 0xde, 0x11, 0x04, 0xd0, 0x37, 0xc6, 0xe3, 0x7c, 0x03, 0x81, 0x7d, 0x04, 0x81, 0x79,
    0xdc, 0xf0, 0x11, 0x04, 0x5c, 0x67, 0x0e, 0xdc, 0x11, 0x04, 0xce, 0xff, 0xff, 0x08, 0x82, 0x19,
    0xd4, 0xf9, 0x78, 0x52, 0x1e, 0xdc, 0x69, 0xbd, 0x85, 0xe0, 0x4f, 0x21, 0xc0, 0x27, 0x8b, 0x17,
    0x10, 0x16, 0xe7, 0x39, 0xa0, 0x78, 0x4b, 0xa5, 0x30, 0xf6, 0x70, 0x0a, 0x81, 0x2e, 0x09, 0x0e,
    0x35, 0x48, 0x9f, 0x04, 0x8e, 0xed, 0x58, 0x4f, 0xe4, 0x25, 0xc1, 0x83, 0x7b, 0x1c, 0x81, 0x71,
    0x58, 0xf0, 0xb4, 0x4e, 0xca, 0x57, 0x31, 0x0f, 0xca, 0x30, 0x09, 0x3c, 0x0a, 0x86, 0xc6, 0x4f,
    0x01, 0xec, 0x30, 0xc0, 0x07, 0xea, 0x93, 0x03, 0xbb, 0xbc, 0xf9, 0x7a, 0xf0, 0xe2, 0xe6, 0xa3,
    0x86, 0xbf, 0x7d, 0xfc, 0xbc, 0x86, 0x3b, 0x2a, 0xc0, 0x3d, 0x06, 0xb0, 0x63, 0x42, 0xe0, 0x83,
    0xf6, 0x84, 0x5f, 0x15, 0x3c, 0x1c, 0x06, 0xf2, 0xbe, 0x86, 0x3f, 0x80, 0xe0, 0x3d, 0x1e, 0xf1,
    0x04, 0x7a, 0x1a, 0x8f, 0x54, 0xfc, 0x98, 0xf1, 0xe2, 0x12, 0x27, 0xc4, 0x8b, 0xc0, 0x83, 0x54,
    0x8c, 0x47, 0x2a, 0xe3, 0x3c, 0x80, 0xc4, 0x79, 0x00, 0xf1, 0x1d, 0xe2, 0xed, 0xe3, 0xa5, 0xca,
    0x37, 0x2b, 0x9f, 0x08, 0xa2, 0xbd, 0x54, 0x19, 0x2a, 0xcc, 0xc3, 0x47, 0xb0, 0xe0, 0x41, 0x5e,
    0x42, 0xe2, 0xc4, 0x7c, 0x0d, 0xf1, 0x01, 0x84, 0x0d, 0x1c, 0xf7, 0xff, 0x3f, 0xd6, 0x80, 0x47,
    0xd0, 0x6b, 0x4f, 0x16, 0x0e, 0x7c, 0x14, 0x9e, 0x9f, 0x18, 0x7c, 0x36, 0xf0, 0xd0, 0x0e, 0xdc,
    0xd7, 0x0b, 0x83, 0x9c, 0xa3, 0x4f, 0x0d, 0x0f, 0x05, 0x1e, 0x03, 0xbb, 0x2d, 0xf8, 0x18, 0xe0,
    0x53, 0x02, 0xfe, 0x1a, 0x11, 0xf0, 0xf5, 0xe0, 0x31, 0x04, 0xd6, 0x71, 0x04, 0x3f, 0xa2, 0x87,
    0x0d, 0xd8, 0xe3, 0xf1, 0x2d, 0x91, 0x9d, 0x2d, 0x9e, 0x8b, 0xc8, 0x20, 0x50, 0x23, 0x33, 0xb4,
    0x27, 0x7d, 0x5a, 0xaf, 0x05, 0x3e, 0x2c, 0x9a, 0xc0, 0x67, 0x10, 0x1f, 0x11, 0x3d, 0x1e, 0xf0,
    0xdf, 0x3e, 0x9e, 0x13, 0x18, 0xb6, 0x4f, 0x0b, 0xc6, 0x7a, 0x6c, 0x04, 0xd3, 0xb1, 0x01, 0x73,
    0x6b, 0x84, 0x79, 0x1c, 0x01, 0x1e, 0x82, 0x0f, 0x9f, 0xd0, 0xfe, 0xff, 0x87, 0x4f, 0x78, 0xe7,
    0x4b, 0xf0, 0x65, 0x74, 0x72, 0x16, 0x62, 0xa9, 0x5f, 0x01, 0xb2, 0x71, 0x2a, 0xa2, 0xa7, 0x10,
    0x6b, 0x02, 0xd2, 0x18, 0xd8, 0x25, 0x84, 0xa3, 0x1c, 0x85, 0x0f, 0x36, 0x1e, 0x9c, 0x07, 0x76,
    0x40, 0x21, 0x02, 0xf9, 0x7c, 0xc0, 0xd2, 0x3f, 0x44, 0x74, 0x12, 0xf1, 0xb9, 0xc0, 0xb9, 0x49,
    0x94, 0x7c, 0x6c, 0x14, 0xce, 0x59, 0x0f, 0x24, 0x14, 0xc4, 0x80, 0x0e, 0x02, 0xa1, 0xdd, 0xe8,
    0xa8, 0x80, 0x38, 0xab, 0xf8, 0x84, 0xe5, 0x61, 0x3c, 0x50, 0xb0, 0x33, 0x0e, 0x23, 0x78, 0xba,
    0x7a, 0xa2, 0x60, 0x07, 0x00, 0x9f, 0x15, 0xf8, 0xd8, 0x7c, 0x79, 0x30, 0xba, 0xd5, 0x9c, 0x57,
    0x50, 0x60, 0x3e, 0x8e, 0x70, 0x82, 0xba, 0xae, 0x42, 0xa0, 0x39, 0x88, 0x3c, 0x87, 0x24, 0xa8,
    0xef, 0xbc, 0x00, 0x0a, 0x20, 0x5f, 0x0e, 0x7c, 0x18, 0x78, 0x40, 0x60, 0x63, 0x78, 0x1e, 0x30,
    0x9a, 0xd1, 0x79, 0xf8, 0xc9, 0xa2, 0xee, 0xc2, 0x9e, 0xac, 0x41, 0x3c, 0x59, 0x47, 0x99, 0x2c,
    0x7a, 0x26, 0xbe, 0x5c, 0x78, 0x42, 0xa7, 0x14, 0xe4, 0x1c, 0x3d, 0x61, 0x5f, 0x46, 0x60, 0x9d,
    0x04, 0x42, 0x3e, 0x33, 0x78, 0x1a, 0xbe, 0x47, 0x61, 0xfe, 0xff, 0x70, 0x6c, 0xb2, 0x7c, 0x2c,
    0xbe, 0x6c, 0xc0, 0x1f, 0x2d, 0x96, 0xa0, 0xc0, 0xd9, 0x82, 0x1c, 0x1e, 0x13, 0x6c, 0x54, 0xf4,
    0xf6, 0xe0, 0xe1, 0xf1, 0xcb, 0x81, 0xe7, 0xf3, 0x8c, 0x70, 0x94, 0x2f, 0x22, 0x3e, 0x25, 0x78,
    0x3a, 0x3e, 0xd5, 0x79, 0x88, 0xec, 0x76, 0x04, 0x6b, 0x22, 0x27, 0xed, 0xdb, 0xc2, 0xc9, 0x06,
    0x7d, 0x4f, 0xc3, 0x5c, 0x4b, 0x70, 0xb7, 0x23, 0xb8, 0xd3, 0x3a, 0xbd, 0x57, 0x40, 0xcc, 0xc9,
    0x82, 0x01, 0xbd, 0x60, 0x1c, 0xee, 0x7b, 0x8e, 0x41, 0x31, 0xe1, 0x57, 0xa1, 0xab, 0x06, 0x1f,
    0x84, 0xa5, 0x01, 0xe9, 0xaa, 0xc1, 0x4e, 0x30, 0x7c, 0x68, 0x3e, 0xf1, 0x31, 0x39, 0xb7, 0x0c,
    0x0a, 0x61, 0x21, 0x14, 0x92, 0x01, 0xa1, 0x93, 0x02, 0x0f, 0x0e, 0x46, 0x41, 0x7c, 0x52, 0x70,
    0x28, 0x08, 0xd9, 0x38, 0x29, 0x40, 0x8f, 0x70, 0x52, 0x00, 0x35, 0x81, 0x51, 0x3c, 0x66, 0xf6,
    0xff, 0x3f, 0x29, 0xc0, 0x1a, 0xc2, 0x63, 0x4e, 0xd5, 0xa3, 0xd1, 0x60, 0xad, 0xee, 0x28, 0x0a,
    0xed, 0xb8, 0x00, 0x38, 0x3a, 0x04, 0xf8, 0xb8, 0x00, 0x9e, 0xdb, 0x01, 0xff, 0x24, 0x3c, 0x1e,
    0xf0, 0xdb, 0x02, 0x1c, 0x82, 0xd1, 0x7f, 0xab, 0x3a, 0x2e, 0xf0, 0xe1, 0x5a, 0x1a, 0x90, 0x26,
    0xce, 0x2e, 0x91, 0xfc, 0x66, 0x27, 0x28, 0xdd, 0x70, 0xb8, 0x18, 0x18, 0xc9, 0x59, 0x9b, 0x0e,
    0x0b, 0x7c, 0x79, 0x86, 0x33, 0x88, 0xef, 0x32, 0x4e, 0x71, 0x4a, 0x41, 0xeb, 0xb8, 0x2d, 0x91,
    0xb9, 0xbc, 0x65, 0x79, 0x86, 0xef, 0x28, 0x3e, 0xe0, 0x00, 0xb7, 0xff, 0xff, 0x19, 0x05, 0x97,
    0x63, 0x4a, 0x68, 0x25, 0xc8, 0xe4, 0x42, 0x10, 0xf2, 0x81, 0x80, 0xcd, 0x09, 0xdc, 0x93, 0xf5,
    0x9c, 0xc0, 0x76, 0x4f, 0x82, 0x73, 0xb5, 0xc3, 0x80, 0xbf, 0xcf, 0xfa, 0x4e, 0x71, 0x50, 0xe0,
    0xbd, 0x16, 0x78, 0x50, 0x60, 0x8b, 0x71, 0x1e, 0x82, 0x72, 0x33, 0x7c, 0x59, 0xf0, 0xbc, 0x1f,
    0x28, 0x82, 0xbc, 0xe3, 0x79, 0x4c, 0x60, 0x45, 0xf2, 0x98, 0xc0, 0x96, 0x61, 0x4c, 0x68, 0x15,
    0x47, 0x0d, 0x32, 0xee, 0x27, 0x8c, 0xf7, 0x15, 0xcf, 0x08, 0x5c, 0xff, 0xff, 0x19, 0x61, 0xee,
    0xd8, 0x3e, 0x6c, 0x01, 0xbe, 0x2f, 0x99, 0x3e, 0x6c, 0x01, 0xef, 0x58, 0xc7, 0x1d, 0xa0, 0x06,
    0xe9, 0x3b, 0x35, 0x58, 0xfe, 0xff, 0x37, 0x5b, 0xcc, 0xfd, 0x86, 0xdf, 0x76, 0xe0, 0xc8, 0xb8,
    0x25, 0xa2, 0x38, 0x2c, 0xf3, 0xac, 0x05, 0xe1, 0xfe, 0x8c, 0xbd, 0x2f, 0x92, 0xd3, 0x16, 0x4a,
    0x10, 0x85, 0x4e, 0x5c, 0x3e, 0xf1, 0x20, 0xe0, 0x28, 0x85, 0x8f, 0x0a, 0xbe, 0xed, 0xfb, 0xb4,
    0x05, 0xff, 0xcc, 0xe0, 0xd3, 0x16, 0xb8, 0x6f, 0xc7, 0xb8, 0xd3, 0x16, 0x78, 0x4e, 0xdd, 0xb0,
    0xcf, 0x0c, 0x80, 0xa5, 0x63, 0x8a, 0xcf, 0x0c, 0x30, 0xff, 0xff, 0x27, 0x2e, 0x78, 0xd3, 0xc5,
    0x02, 0x3d, 0x71, 0x78, 0xd2, 0x31, 0x13, 0x54, 0xf1, 0xfa, 0xd0, 0x99, 0x81, 0x8b, 0x82, 0x90,
    0xba, 0x03, 0x17, 0x62, 0x42, 0xec, 0xd6, 0x8f, 0x39, 0xb8, 0x3e, 0x93, 0x1a, 0x26, 0xc6, 0x39,
    0x3c, 0x47, 0x33, 0x25, 0xc7, 0x2e, 0x94, 0x06, 0x18, 0xa9, 0x38, 0x76, 0xa1, 0x72, 0x53, 0x09,
    0xce, 0x20, 0xbe, 0xd5, 0x38, 0xc4, 0x79, 0x05, 0x7d, 0x2f, 0xf6, 0x71, 0xe0, 0x9d, 0xc4, 0x03,
    0x7b, 0xcd, 0x7e, 0xeb, 0x02, 0xa6, 0x43, 0x82, 0x0b, 0xe8, 0x43, 0x17, 0xf0, 0x1c, 0x12, 0x5c,
    0xc4, 0x43, 0x02, 0xef, 0xff, 0xff, 0xc8, 0x05, 0xc6, 0x21, 0xc1, 0xbd, 0xc6, 0xfb, 0xc4, 0x05,
    0x3c, 0x87, 0x04, 0xf7, 0x3a, 0xf1, 0xc6, 0x05, 0xf0, 0xe4, 0xff, 0x7f, 0xe3, 0x02, 0xfe, 0xf1,
    0xae, 0x3b, 0x40, 0x6d, 0x98, 0x3e, 0xf3, 0xbf, 0xee, 0x80, 0xef, 0x80, 0x83, 0x81, 0xa9, 0x70,
    0x0a, 0xf2, 0x39, 0x39, 0xa1, 0x3c, 0xe3, 0xc0, 0x20, 0x98, 0xf4, 0xd6, 0x85, 0x92, 0x04, 0x21,
    0x35, 0x67, 0x7d, 0xf4, 0x58, 0x8f, 0x82, 0xcd, 0xd7, 0xc3, 0x79, 0x76, 0x3c, 0xe6, 0x73, 0x30,
    0xc1, 0xec, 0x27, 0x7d, 0x54, 0x6a, 0x12, 0xe5, 0x3e, 0x2f, 0xa0, 0x92, 0x9e, 0x17, 0x28, 0x88,
    0x01, 0x7d, 0x9b, 0x84, 0x73, 0xd3, 0x38, 0xbd, 0xc3, 0x63, 0xb7, 0x82, 0x43, 0x79, 0xe5, 0x01,
    0xfb, 0xff, 0xff, 0xa0, 0x0f, 0x30, 0x2d, 0xd2, 0x55, 0x03, 0xa8, 0xdd, 0x12, 0x7c, 0x4a, 0xc7,
    0x5d, 0x35, 0xe0, 0xde, 0x29, 0xd8, 0xef, 0xe2, 0x65, 0x83, 0xfd, 0xff, 0x2f, 0x1b, 0xbe, 0x56,
    0x60, 0x62, 0xfe, 0x77, 0x4c, 0xa0, 0x38, 0x4b, 0x57, 0x30, 0x18, 0xd4, 0x40, 0x7c, 0x18, 0xc0,
    0x8f, 0xe9, 0x10, 0x62, 0x1f, 0x1a, 0xbb, 0x6f, 0x18, 0x8e, 0x8f, 0xdc, 0x03, 0x79, 0x7a, 0x3b,
    0x96, 0xf3, 0x38, 0x37, 0x4f, 0x28, 0x24, 0x3b, 0x37, 0x79, 0x60, 0xfc, 0x8c, 0xec, 0xd1, 0x9c,
    0xd0, 0x49, 0x3d, 0x86, 0x3c, 0x1c, 0xf9, 0x26, 0x67, 0x02, 0x0f, 0x94, 0xa1, 0x71, 0x82, 0x01,
    0x46, 0x09, 0x9a, 0x9b, 0xb5, 0x0f, 0xcd, 0x46, 0x38, 0xc7, 0x78, 0xa1, 0x7c, 0xc5, 0xf4, 0x11,
    0xc1, 0x10, 0x3e, 0x7c, 0x3c, 0xa5, 0x7b, 0x10, 0xef, 0x01, 0x0c, 0xe6, 0xfd, 0xd0, 0x28, 0x47,
    0xe3, 0xfb, 0x31, 0x1b, 0xb1, 0xad, 0x9e, 0xa3, 0x09, 0x2c, 0x03, 0x7a, 0x44, 0xe7, 0xa3, 0xc3,
    0x0d, 0xd3, 0x07, 0x6a, 0xcc, 0x85, 0x85, 0x4d, 0xf8, 0x49, 0xe1, 0x45, 0xe6, 0x25, 0xa2, 0x78,
    0x54, 0x61, 0x34, 0x07, 0x45, 0xe0, 0x42, 0x63, 0x4e, 0x55, 0x38, 0x02, 0xbb, 0x17, 0x20, 0xee,
    0x18, 0xa1, 0x19, 0xf6, 0x06, 0xa1, 0x73, 0x4c, 0xe4, 0x47, 0xbc, 0xb6, 0x80, 0x34, 0xbf, 0xda,
    0x80, 0x84, 0x72, 0x04, 0x2f, 0x13, 0x41, 0xe2, 0x44, 0x09, 0xf7, 0x66, 0x10, 0x2e, 0x46, 0x94,
    0xd6, 0xe0, 0x08, 0x4e, 0x84, 0x28, 0x07, 0x12, 0xbc, 0x46, 0x48, 0x81, 0x85, 0x68, 0xff, 0x08,
    0xc0, 0x4e, 0xf0, 0xf4, 0x1c, 0xe1, 0xd1, 0xf0, 0x83, 0x85, 0xcf, 0x06, 0x3e, 0x17, 0x9c, 0xe3,
    0x13, 0xbc, 0xe7, 0xf6, 0x8c, 0xea, 0xc1, 0xd5, 0x79, 0x28, 0x20, 0xc3, 0x63, 0x47, 0x0f, 0x9f,
    0x40, 0xd8, 0xff, 0xff, 0x94, 0x80, 0x3d, 0x67, 0x06, 0x7c, 0x3f, 0xf5, 0xe1, 0xc0, 0xcf, 0x1c,
    0xc3, 0xf1, 0x21, 0xfa, 0xf0, 0xc0, 0x47, 0xc2, 0x8e, 0x20, 0x60, 0x18, 0x8f, 0x8f, 0x06, 0x3e,
    0x05, 0x98, 0xc0, 0xf2, 0x07, 0x81, 0x3a, 0xa7, 0xf0, 0x59, 0xbe, 0xc9, 0xb2, 0x73, 0x81, 0x09,
    0x2c, 0xf6, 0xc8, 0x42, 0xc7, 0x03, 0xfe, 0x93, 0xd1, 0xa3, 0x41, 0x84, 0x37, 0x03, 0xcf, 0xd7,
    0xe7, 0x59, 0x76, 0x8c, 0xc1, 0x9d, 0x21, 0x3c, 0xe8, 0x88, 0xc7, 0xe3, 0xc3, 0xd1, 0xc9, 0xd6,
    0x7a, 0x4a, 0x20, 0x47, 0x83, 0x33, 0x72, 0xf0, 0xeb, 0x13, 0x3d, 0x67, 0xfa, 0x3c, 0xc2, 0x0f,
    0x17, 0x3e, 0x57, 0xb0, 0x9b, 0x2f, 0x3f, 0x8e, 0xb0, 0x73, 0x2e, 0x19, 0x1b, 0x74, 0x40, 0xfc,
    0x41, 0x0a, 0x03, 0xc8, 0x26, 0xf7, 0xa4, 0x01, 0x96, 0xc1, 0x61, 0x4e, 0x21, 0x9e, 0x91, 0xd1,
    0xd8, 0xb9, 0x8a, 0xcd, 0x8f, 0x1f, 0x74, 0xc0, 0xf7, 0xff, 0x3f, 0xbe, 0x60, 0x0f, 0x3a, 0xf0,
    0x6e, 0x59, 0x0c, 0xea, 0x00, 0xde, 0x40, 0xf8, 0xe1, 0x03, 0x43, 0x60, 0x91, 0x23, 0x44, 0x8f,
    0x80, 0x8f, 0xee, 0xa1, 0x87, 0x8d, 0xe0, 0xbd, 0xc7, 0x93, 0x38, 0x20, 0x9f, 0x53, 0x3c, 0x45,
    0x1f, 0x3f, 0x1e, 0x57, 0x3c, 0x8c, 0xe3, 0x3b, 0xa9, 0xf3, 0x7b, 0xa9, 0xf0, 0x98, 0xb0, 0xe7,
    0x0a, 0x0f, 0x81, 0x0f, 0xe0, 0x60, 0xce, 0xcf, 0xa7, 0xa0, 0xb3, 0xc2, 0x9d, 0x0a, 0xf8, 0xac,
    0x30, 0x87, 0x21, 0x5c, 0xe0, 0xf7, 0x8f, 0x8f, 0x13, 0x7e, 0x19, 0x48, 0xde, 0x13, 0x81, 0xc2,
    0xf8, 0x8c, 0x03, 0xbc, 0xcf, 0x30, 0xe0, 0x14, 0x7c, 0x42, 0x07, 0xd9, 0xd0, 0xdf, 0x9a, 0x3c,
    0x20, 0x4f, 0xe7, 0x30, 0x0c, 0xf4, 0xaa, 0xc0, 0x90, 0x7c, 0x14, 0xf0, 0x8d, 0xc5, 0x07, 0x1f,
    0x9f, 0x7d, 0xf8, 0xd9, 0xc6, 0xff, 0xff, 0xb3, 0x0d, 0xdc, 0xbb, 0x4c, 0x04, 0xdf, 0x65, 0x5e,
    0x67, 0x4e, 0xea, 0x49, 0xe0, 0xe1, 0xe1, 0x9d, 0xe6, 0x80, 0x22, 0xf8, 0x62, 0x63, 0xa4, 0x37,
    0x1a, 0xa3, 0xf8, 0x92, 0x13, 0x25, 0x44, 0x84, 0x28, 0xaf, 0x36, 0x31, 0x9e, 0x0b, 0x62, 0x05,
    0x89, 0x11, 0xc9, 0xc8, 0xd1, 0xe3, 0x1e, 0xe3, 0xb3, 0x0d, 0x0b, 0x78, 0x1e, 0xd0, 0x27, 0xca,
    0x67, 0x1b, 0x80, 0x1f, 0x87, 0x16, 0xdc, 0xa1, 0x04, 0xfe, 0x61, 0x01, 0x0c, 0xe7, 0x12, 0xf8,
    0xff, 0xff, 0x73, 0x09, 0x98, 0x82, 0x98, 0x3a, 0x01, 0x31, 0x21, 0xb7, 0x4d, 0xd4, 0x20, 0x2c,
    0xf7, 0x98, 0xa0, 0x0b, 0xdc, 0x4b, 0x9d, 0x6f, 0x40, 0xa7, 0xe3, 0x33, 0xc0, 0x5b, 0x05, 0x3f,
    0x5c, 0xe8, 0xaa, 0x49, 0x21, 0x2c, 0x8e, 0x42, 0xd2, 0x20, 0x74, 0x5e, 0xe4, 0x62, 0xe0, 0x28,
    0x88, 0x8f, 0x00, 0x0e, 0x7a, 0x48, 0x86, 0x72, 0x17, 0xe2, 0x04, 0x0e, 0x76, 0x2f, 0xa6, 0xc7,
    0x45, 0xb8, 0x67, 0x43, 0xdc, 0xe1, 0x03, 0xee, 0xe0, 0xe0, 0x1d, 0x1f, 0xe1, 0x1d, 0x83, 0xc0,
    0x71, 0xb1, 0x09, 0xf4, 0x14, 0x10, 0xe8, 0xf1, 0x11, 0xf8, 0x04, 0x3a, 0x3e, 0xa2, 0xce, 0x8c,
    0xe0, 0x38, 0x05, 0xf8, 0x24, 0x09, 0xa6, 0xff, 0xff, 0xe8, 0x81, 0x81, 0xc0, 0x43, 0x03, 0xea,
    0xf4, 0xe5, 0x93, 0x90, 0x61, 0xd9, 0x34, 0x5f, 0x65, 0x0c, 0xf2, 0x08, 0x11, 0xf6, 0xc9, 0xc2,
    0xf0, 0x30, 0xa4, 0x1e, 0x1c, 0x50, 0x22, 0x29, 0x74, 0x78, 0xf0, 0xc1, 0x81, 0x8b, 0x82, 0xa3,
    0x20, 0x3e, 0x38, 0x38, 0xf0, 0xc1, 0x01, 0x7a, 0xc0, 0x83, 0x03, 0x28, 0xce, 0x62, 0xe0, 0x19,
    0x20, 0x78, 0x0e, 0x0f, 0x80, 0x93, 0xa3, 0x87, 0x0f, 0x0f, 0x60, 0xfa, 0xff, 0x9f, 0x03, 0xd8,
    0xe1, 0x01, 0x5c, 0x27, 0x00, 0x20, 0x74, 0x80, 0x40, 0x1d, 0x02, 0x2c, 0xf9, 0x00, 0x81, 0x38,
    0x6b, 0xbe, 0xf4, 0xf8, 0xc8, 0x79, 0xa0, 0x87, 0x11, 0xe8, 0x84, 0xd8, 0xd1, 0x81, 0x9d, 0x1e,
    0xb8, 0x3c, 0x0a, 0x1d, 0x63, 0x7c, 0x7a, 0xe0, 0x47, 0x45, 0x83, 0x19, 0xc4, 0xc3, 0x74, 0xd4,
    0xd3, 0x03, 0xf4, 0x68, 0xa7, 0x07, 0x50, 0x1c, 0x83, 0xc1, 0x33, 0x3a, 0xb8, 0x47, 0x07, 0xc0,
    0xc9, 0xa1, 0x9a, 0xfd, 0xff, 0x8f, 0x0e, 0x60, 0x3a, 0x5f, 0x83, 0x6f, 0xf8, 0x40, 0xe2, 0xdc,
    0x00, 0x05, 0xf1, 0xb9, 0x01, 0xd8, 0x9f, 0xc4, 0x7c, 0x4e, 0xe3, 0x23, 0x05, 0xcf, 0xe8, 0xe0,
    0x9e, 0x1b, 0x80, 0xfd, 0xff, 0xff, 0xdc, 0x00, 0x2c, 0x86, 0xee, 0x73, 0x03, 0x70, 0x1a, 0x3e,
    0xe4, 0xe3, 0x0b, 0xf4, 0x49, 0x3f, 0xbe, 0x00, 0xc6, 0x46, 0x87, 0x3f, 0x37, 0x00, 0xc3, 0xff,
    0xff, 0xb9, 0x01, 0x18, 0x9e, 0xc1, 0x7d, 0x7c, 0x01, 0x7e, 0xc3, 0x87, 0x70, 0x7c, 0x81, 0x7e,
    0x6e, 0x00, 0xce, 0xc7, 0x17, 0xf0, 0x9f, 0x1b, 0x80, 0xd5, 0xff, 0xff, 0xdc, 0x00, 0xec, 0xcf,
    0xe4, 0x3e, 0xbe, 0x00, 0xbf, 0xe1, 0xe3, 0x45, 0x9d, 0x1b, 0x50, 0x1c, 0x96, 0x7d, 0xb8, 0x44,
    0xe1, 0xf7, 0x7e, 0xb0, 0x23, 0xb3, 0x3d, 0x85, 0x93, 0x33, 0xd4, 0xdb, 0x4c, 0x02, 0xcb, 0x3c,
    0x38, 0xa0, 0x04, 0x1e, 0xe2, 0x7d, 0x70, 0x40, 0x09, 0x82, 0xa3, 0x20, 0x3e, 0x38, 0x38, 0xec,
    0xc1, 0x01, 0x7a, 0xb8, 0xf3, 0x0b, 0x28, 0x4e, 0xc7, 0xf8, 0x93, 0x20, 0xfc, 0xe1, 0xc1, 0x3b,
    0x39, 0x80, 0xe1, 0xff, 0x7f, 0x72, 0x00, 0xc6, 0xa1, 0x4e, 0x0e, 0xa0, 0xf3, 0x70, 0x72, 0x00,
    0xdd, 0xf8, 0x81, 0xc7, 0xd1, 0x01, 0xce, 0x31, 0x82, 0x1d, 0x1d, 0x80, 0xfd, 0x11, 0x06, 0x37,
    0x56, 0xf0, 0x0c, 0x0f, 0xe6, 0xff, 0xff, 0xe8, 0x00, 0x98, 0x04, 0xf7, 0xd1, 0x01, 0x38, 0x8d,
    0x1f, 0xfe, 0x21, 0x06, 0x6c, 0x23, 0x67, 0x87, 0x18, 0xc0, 0xc4, 0xff, 0xff, 0xd4, 0x01, 0x9e,
    0xe1, 0xb1, 0xa3, 0x03, 0xe0, 0xd0, 0xc4, 0x21, 0x06, 0x08, 0x0f, 0x96, 0x1d, 0x62, 0xc0, 0x76,
    0x74, 0x00, 0x9e, 0xff, 0xff, 0x43, 0x0c, 0xf0, 0x39, 0x3a, 0x00, 0x26, 0x55, 0x1c, 0x62, 0x80,
    0xf0, 0x60, 0x99, 0xb4, 0xa3, 0x03, 0x4a, 0x12, 0x84, 0xa4, 0x1f, 0x62, 0x10, 0x93, 0x8d, 0x7d,
    0xde, 0xc7, 0x79, 0x3e, 0xbe, 0xe4, 0x19, 0xfe, 0x3d, 0xc1, 0x37, 0x95, 0x20, 0x61, 0x12, 0x14,
    0x7a, 0x76, 0x40, 0x49, 0xa4, 0xd0, 0xe1, 0xc1, 0x67, 0x07, 0x2e, 0x09, 0x8e, 0x82, 0xf8, 0xec,
    0xe0, 0xb8, 0x67, 0x07, 0xc4, 0xff, 0xff, 0xec, 0x00, 0x2b, 0xde, 0x29, 0x06, 0x14, 0xc3, 0x7b,
    0xec, 0x00, 0xd7, 0xf8, 0x60, 0x1f, 0x1e, 0x00, 0x27, 0xb1, 0x0e, 0x0f, 0xa0, 0x1b, 0xba, 0x0f,
    0x0f, 0xe0, 0x3a, 0x00, 0x00, 0x97, 0xd3, 0x03, 0x4c, 0x8c, 0xa7, 0x07, 0xd8, 0xff, 0xff, 0xd3,
    0x03, 0xe0, 0x66, 0x7c, 0xb0, 0x4f, 0x0f, 0x80, 0xc3, 0x13, 0x80, 0x4f, 0x0f, 0xc0, 0xec, 0x00,
    0x00, 0x5b, 0xe6, 0xe9, 0x81, 0xfc, 0xff, 0xc7, 0xc0, 0x46, 0xe4, 0x08, 0xa7, 0x07, 0xc4, 0xb4,
    0x63, 0x44, 0x8d, 0xf9, 0x34, 0x01, 0x5b, 0xec, 0xf9, 0x01, 0x75, 0xb4, 0xf2, 0x09, 0xdc, 0xe7,
    0x07, 0x2e, 0x0b, 0x8e, 0x82, 0xf8, 0xfc, 0xe0, 0xc8, 0xe7, 0x07, 0xe8, 0x11, 0xcf, 0x0f, 0xa0,
    0x18, 0xd2, 0xf1, 0x82, 0x6b, 0x84, 0x60, 0x39, 0x41, 0x00, 0x4e, 0x0e, 0xf0, 0x3e, 0x41, 0x80,
    0xcb, 0xc6, 0x09, 0x02, 0x74, 0x47, 0x00, 0xec, 0xff, 0xff, 0x08, 0x00, 0x2c, 0xce, 0x10, 0x60,
    0x38, 0x53, 0xc0, 0x3e, 0x43, 0x00, 0x96, 0x0e, 0x35, 0x80, 0xb1, 0x33, 0x04, 0x18, 0xfe, 0xff,
    0x67, 0x08, 0xac, 0x8e, 0x33, 0x04, 0x90, 0x3c, 0xd6, 0x80, 0x77, 0xbe, 0xc7, 0x76, 0x00, 0xf6,
    0x0c, 0x4d, 0xce, 0x10, 0x80, 0xb5, 0x11, 0x82, 0xe5, 0x0c, 0x01, 0x4c, 0xff, 0xff, 0x67, 0x08,
    0x60, 0xe6, 0xe3, 0x0c, 0x01, 0xe4, 0x8e, 0x00, 0x60, 0x91, 0x7c, 0x86, 0x40, 0x49, 0x83, 0x50,
    0x94, 0x33, 0x04, 0x62, 0xa0, 0xc7, 0x50, 0xfb, 0x28, 0x04, 0x7a, 0x16, 0x9e, 0x13, 0x1f, 0x02,
    0x3c, 0xc1, 0xa7, 0x08, 0x94, 0x54, 0x0a, 0x1d, 0xff, 0x7c, 0x8a, 0xe0, 0xd2, 0xe0, 0x28, 0x88,
    0x4f, 0x11, 0x8e, 0x7d, 0x8a, 0x80, 0x1e, 0xf3, 0x14, 0x01, 0x0a, 0xb9, 0x63, 0x06, 0xd9, 0x18,
    0xc1, 0x76, 0x8e, 0xc0, 0xfe, 0xff, 0xcf, 0x11, 0x80, 0x85, 0xf3, 0xa3, 0xcf, 0x11, 0xe0, 0x1a,
    0x8b, 0xcf, 0x11, 0xe0, 0x3a, 0x04, 0x00, 0xb7, 0xf3, 0x28, 0xcc, 0x01, 0x7b, 0x2a, 0xcf, 0xa3,
    0x80, 0x9d, 0xff, 0xff, 0x88, 0xe1, 0x8d, 0x0f, 0xf6, 0x79, 0x14, 0x70, 0x68, 0xe4, 0x3c, 0x0a,
    0xe4, 0x0e, 0x00, 0xb0, 0x4f, 0x0f, 0x30, 0x27, 0xca, 0x4e, 0x0f, 0xc0, 0xf4, 0xff, 0x7f, 0x7a,
    0x00, 0x2e, 0xe3, 0x83, 0x7d, 0x7a, 0x00, 0x1c, 0x2a, 0x39, 0x3d, 0x00, 0xb9, 0x03, 0x00, 0x6c,
    0x21, 0xa7, 0x07, 0xd4, 0x18, 0x2c, 0xf7, 0xa8, 0xa0, 0x41, 0x9c, 0xc0, 0x41, 0xc4, 0xac, 0x78,
    0x40, 0x04, 0xe7, 0x60, 0xe3, 0xd7, 0x78, 0x6e, 0xa0, 0x47, 0x07, 0x2e, 0x8e, 0x42, 0xe7, 0x2a,
    0x1f, 0x1d, 0xb8, 0x18, 0x38, 0x0a, 0xe2, 0x4d, 0xfc, 0xff, 0x13, 0x0c, 0x7a, 0x74, 0x80, 0x1e,
    0xec, 0xe8, 0x00, 0x6d, 0x3a, 0xa7, 0xe7, 0xa1, 0xb2, 0x43, 0x01, 0x6e, 0xa8, 0x70, 0x07, 0x07,
    0xef, 0xdc, 0x00, 0x38, 0x09, 0x74, 0x6e, 0x00, 0xdd, 0x09, 0xc0, 0xe7, 0x06, 0x70, 0x8d, 0x1e,
    0xfc, 0x02, 0xad, 0xc0, 0xb3, 0xc0, 0x47, 0x04, 0x05, 0x5b, 0x18, 0x85, 0xb1, 0x87, 0xb3, 0x01,
    0x94, 0xd1, 0x1d, 0xdc, 0x31, 0x1d, 0x0e, 0x3b, 0xcc, 0x18, 0x8e, 0x0f, 0xfc, 0xff, 0x7f, 0x20,
    0x36, 0x3f, 0x14, 0x0d, 0xe4, 0x2c, 0x3d, 0x9f, 0x90, 0xec, 0xec, 0xe7, 0x71, 0x71, 0x29, 0xc7,
    0x19, 0x9f, 0xb9, 0xc8, 0xa9, 0xcb, 0xf3, 0x7b, 0xac, 0x30, 0x81, 0x47, 0xc1, 0xd0, 0xf8, 0xd0,
    0xe1, 0x1d, 0x03, 0x8a, 0x3f, 0x63, 0x90, 0x89, 0x1c, 0xe1, 0x1b, 0x86, 0xcf, 0x13, 0x2c, 0xcc,
    0x78, 0x41, 0x73, 0x39, 0xa8, 0x19, 0x4b, 0xaf, 0x8d, 0x53, 0xa9, 0x50, 0x80, 0x56, 0x10, 0xcd,
    0xe1, 0x0d, 0x21, 0x46, 0x88, 0x78, 0xc7, 0x11, 0x21, 0xa4, 0x71, 0x30, 0x13, 0x8c, 0x73, 0x5e,
    0x81, 0x8a, 0x44, 0xa1, 0x73, 0xf7, 0x20, 0x02, 0x1d, 0xd9, 0xe3, 0x00, 0x83, 0x39, 0x86, 0x68,
    0xe7, 0x10, 0x25, 0xd4, 0xf1, 0x31, 0x90, 0x97, 0x85, 0x60, 0x1e, 0xa6, 0xc1, 0x4c, 0x10, 0xfa,
    0xb0, 0x30, 0x47, 0x0e, 0x1f, 0x4b, 0xde, 0x23, 0x7c, 0xa6, 0x60, 0xee, 0xaf, 0x14, 0x3a, 0x49,
    0x44, 0x88, 0xf3, 0x28, 0x11, 0xe1, 0xf1, 0x21, 0x44, 0x5b, 0xe7, 0x90, 0x18, 0xb2, 0x36, 0x77,
    0xa1, 0x84, 0xa8, 0x6d, 0x64, 0x02, 0x8a, 0x12, 0x23, 0x42, 0x6f, 0x10, 0x42, 0x89, 0xd6, 0xdc,
    0xbc, 0x84, 0x16, 0x2b, 0x42, 0x90, 0x30, 0x11, 0x63, 0x1f, 0xc0, 0xf3, 0x41, 0xfb, 0x87, 0x4a,
    0xc4, 0xd1, 0x02, 0x37, 0xd6, 0x43, 0x3c, 0xa3, 0x13, 0x3b, 0x3c, 0x13, 0x78, 0x62, 0xe7, 0xf5,
    0x78, 0x77, 0x34, 0x0f, 0x00, 0x51, 0x63, 0xc4, 0x4f, 0xe0, 0xa0, 0xeb, 0xd7, 0x99, 0xc4, 0x91,
    0xe0, 0x51, 0x07, 0x0d, 0x1f, 0x16, 0x3c, 0x54, 0x9f, 0x00, 0xde, 0x4e, 0x0c, 0x72, 0x8e, 0x3e,
    0x75, 0x3c, 0x25, 0x78, 0x0c, 0xec, 0x90, 0xe4, 0x73, 0x81, 0x8f, 0x0d, 0x78, 0xd7, 0x02, 0xfe,
    0xff, 0x80, 0xef, 0x0b, 0x4f, 0x0b, 0xec, 0x1b, 0x63, 0x38, 0x3e, 0x5e, 0xdf, 0x66, 0x3c, 0x81,
    0x77, 0x0b, 0x03, 0xb2, 0x23, 0x09, 0xfc, 0xf1, 0xf8, 0x80, 0xe0, 0xf9, 0x3c, 0x95, 0x26, 0xb0,
    0xfc, 0x41, 0xa0, 0x46, 0x66, 0x68, 0x0f, 0xf8, 0xb4, 0xde, 0x13, 0x7c, 0x19, 0x38, 0x2c, 0x26,
    0x16, 0x42, 0x27, 0x1a, 0x8f, 0x07, 0xfc, 0xe7, 0x8e, 0xe3, 0x8f, 0x70, 0xfa, 0x9e, 0xaf, 0x0f,
    0xa7, 0x3a, 0xb1, 0x80, 0xe2, 0x1c, 0xc1, 0xa0, 0x0e, 0x21, 0xfe, 0x41, 0x05, 0x39, 0x84, 0x38,
    0x3e, 0x47, 0xe0, 0x70, 0x8c, 0x72, 0x46, 0x41, 0x1e, 0x1d, 0xf0, 0x27, 0x89, 0x07, 0x0c, 0xec,
    0x40, 0xf8, 0x69, 0xe0, 0x21, 0x86, 0x01, 0xbf, 0xc7, 0x18, 0xff, 0xb8, 0x7c, 0xf0, 0x30, 0xc2,
    0xd9, 0x3e, 0x23, 0x3c, 0x7f, 0xf8, 0x44, 0xe1, 0x4b, 0xd2, 0xa9, 0xbd, 0x14, 0x78, 0xe4, 0x7a,
    0xd1, 0x49, 0x03, 0x88, 0xf2, 0x1e, 0xda, 0xd0, 0x7a, 0x80, 0x34, 0x30, 0x76, 0x6d, 0x62, 0x23,
    0x63, 0xd7, 0x87, 0xf3, 0xf4, 0xb9, 0x08, 0x97, 0xfe, 0x8c, 0x44, 0x4f, 0x00, 0xce, 0x4d, 0xa2,
    0xe4, 0x63, 0xa2, 0x70, 0xce, 0x7a, 0x16, 0xa1, 0x20, 0x06, 0x74, 0x90, 0xa3, 0x12, 0xfa, 0x98,
    0xe2, 0xb3, 0xc8, 0xff, 0xff, 0x09, 0xd8, 0x47, 0x07, 0x76, 0xf2, 0x60, 0x04, 0x4f, 0x39, 0xcf,
    0x0e, 0x6c, 0x98, 0x3e, 0x15, 0xf0, 0x91, 0xf9, 0xb0, 0xc4, 0xc0, 0xab, 0x39, 0xaa, 0xa0, 0xc0,
    0x7c, 0x36, 0xc2, 0xe8, 0xba, 0x19, 0x40, 0x1f, 0xee, 0x11, 0x78, 0x28, 0xaf, 0x46, 0x4c, 0xdf,
    0xd1, 0x08, 0xe4, 0xe8, 0x3c, 0xfc, 0x64, 0x51, 0x97, 0x3d, 0x4f, 0xd6, 0x20, 0x9e, 0xac, 0xa3,
    0x4c, 0x16, 0x3d, 0x13, 0x5f, 0x23, 0x7c, 0x0a, 0x63, 0xf7, 0x2b, 0x36, 0xe1, 0xd7, 0x0e, 0x58,
    0x37, 0x3e, 0xdc, 0xbd, 0x0a, 0xde, 0x58, 0x7c, 0xad, 0x80, 0x3f, 0x5a, 0xec, 0xf5, 0x0e, 0x58,
    0x5d, 0xa6, 0xc0, 0x73, 0x31, 0x82, 0xf3, 0xff, 0xbf, 0x62, 0xc1, 0xb9, 0xfe, 0x93, 0xeb, 0x1d,
    0xc8, 0x2e, 0x46, 0x98, 0x93, 0x05, 0x03, 0x79, 0xb3, 0xc0, 0xdd, 0x33, 0x60, 0x1e, 0x43, 0x7c,
    0xcf, 0x00, 0xd8, 0xf7, 0xff, 0xbf, 0x67, 0x00, 0xc6, 0xc7, 0xef, 0x7b, 0x06, 0x78, 0x0e, 0x16,
    0xec, 0x9e, 0x01, 0x3b, 0xf7, 0x3d, 0x03, 0x35, 0x22, 0x6b, 0x3a, 0x1f, 0x41, 0x1a, 0x40, 0x64,
    0xdf, 0x28, 0xd8, 0x65, 0xec, 0x4d, 0x03, 0x30, 0xf1, 0xff, 0xbf, 0x69, 0x00, 0xdc, 0x8b, 0x76,
    0xd3, 0x00, 0x6a, 0x90, 0x1e, 0xcd, 0x9b, 0x06, 0x18, 0xfe, 0xff, 0x27, 0x24, 0x38, 0x67, 0x0b,
    0xec, 0x5d, 0x03, 0x3c, 0x67, 0x24, 0xdc, 0x5d, 0x03, 0x60, 0xea, 0xff, 0xff, 0xae, 0x01, 0x58,
    0x3c, 0xf5, 0xfa, 0xae, 0x01, 0x6c, 0xcf, 0x49, 0xb8, 0xd3, 0xab, 0x87, 0xe7, 0xab, 0xaa, 0x87,
    0xf8, 0xae, 0x01, 0xd8, 0xfa, 0xff, 0xdf, 0x35, 0x00, 0xce, 0x5a, 0xb8, 0x6b, 0x00, 0x95, 0xff,
    0xff, 0x39, 0x09, 0x8c, 0x77, 0x0d, 0x80, 0xcd, 0xff, 0xff, 0xbb, 0x06, 0x60, 0xe8, 0x96, 0xe0,
    0xbb, 0x06, 0x70, 0x52, 0x68, 0xd3, 0xa7, 0x46, 0xa3, 0x56, 0x0d, 0xca, 0xd4, 0x28, 0xd3, 0xa0,
    0x56, 0x9f, 0x4a, 0x8d, 0x19, 0x9b, 0x40, 0x82, 0xb2, 0x9f, 0x50, 0x1a, 0x95, 0xa3, 0x79, 0x00,
    0x61, 0xc1, 0x56, 0xa3, 0x63, 0x80, 0x23, 0xa9, 0x00, 0x62, 0x82, 0xd6, 0x29, 0x10, 0x4b, 0xb0,
    0x01, 0xd1, 0xc8, 0x15, 0xdb, 0x20, 0x02, 0x72, 0x76, 0x20, 0xaa, 0x44, 0x07, 0x10, 0x4b, 0xeb,
    0x03, 0x88, 0x65, 0x07, 0x11, 0x90, 0x23, 0xd2, 0x08, 0xc8, 0x79, 0x29, 0x04, 0x64, 0xa5, 0x4a,
    0x80, 0x98, 0x6c, 0x10, 0x01, 0x39, 0x31, 0x10, 0x8d, 0x0f, 0x44, 0x75, 0x3f, 0x1d, 0x04, 0xe4,
    0x10, 0x20, 0x02, 0x72, 0x74, 0x20, 0xaa, 0xe3, 0xe7, 0x21, 0x20, 0x67, 0x06, 0x11, 0x90, 0x15,
    0x58, 0x01, 0x62, 0x39, 0xb5, 0x00, 0xb1, 0xd4, 0x20, 0x1a, 0x10, 0x59, 0xb9, 0x80, 0x1c, 0x1d,
    0x44, 0x40, 0x56, 0x6c, 0x06, 0x88, 0xc9, 0x07, 0x11, 0x90, 0x53, 0x03, 0x51, 0x09, 0x6a, 0xfe,
    0xff, 0x40, 0x4c, 0x39, 0x88, 0x80, 0x1c, 0x03, 0x88, 0xa6, 0x07, 0xa2, 0x52, 0xdc, 0x00, 0xb1,
    0xd8, 0x20, 0x02, 0xb2, 0x88, 0xf7, 0x84, 0x80, 0x1c, 0xd9, 0x0e, 0x10, 0xcb, 0x0f, 0x22, 0x20,
    0x67, 0xd5, 0x03, 0xc4, 0x92, 0x83, 0x08, 0xc8, 0xea, 0x14, 0x81, 0xb0, 0x6c, 0x20, 0x34, 0xa9,
    0xa3, 0xe1, 0x51, 0x4d, 0x83, 0xa2, 0x9e, 0x40, 0x98, 0x0e, 0x53, 0xe0, 0x4c, 0x15, 0x88, 0x80,
    0xac, 0xcf, 0x15, 0x10, 0x53, 0x0b, 0x22, 0x20, 0x6b, 0xb6, 0x05, 0xc4, 0x12, 0x80, 0x08, 0xc8,
    0x09, 0x7c, 0x01, 0xb1, 0x3c, 0x20, 0x02, 0x72, 0x1e, 0x63, 0x40, 0x2c, 0x1d, 0x88, 0x80, 0x9c,
    0xee, 0x99, 0x11, 0x88, 0x64, 0x05, 0x11, 0x90, 0xf3, 0x5a, 0x03, 0x62, 0xe9, 0x41, 0x04, 0x64,
    0x0d, 0xe2, 0x80, 0x98, 0x22, 0x10, 0x01, 0x59, 0x97, 0x3a, 0x20, 0xa6, 0x12, 0x44, 0x40, 0xd6,
    0x2a, 0x0f, 0x88, 0x29, 0x07, 0x11, 0x90, 0x33, 0xfc, 0x5a, 0x04, 0xe4, 0x44, 0x20, 0x1a, 0x08,
    0x79, 0x7c, 0x68, 0x20, 0x04, 0x44, 0x40, 0xce, 0xff, 0x90, 0x08, 0x44, 0xd4, 0x3c, 0x3e, 0x02,
    0x11, 0x95, 0x2f, 0x11, 0x01, 0x59, 0x33, 0x88, 0x80, 0x9c, 0xe5, 0x51, 0x11, 0x88, 0x24, 0x03,
    0x11, 0x90, 0x93, 0x7f, 0x32, 0x1e, 0x11, 0x98, 0x4a, 0x20, 0xa6, 0xed, 0x49, 0x2d, 0x20, 0x2b,
    0x05, 0x11, 0x90, 0x55, 0xeb, 0x04, 0x62, 0x19, 0x40, 0x34, 0x20, 0xf2, 0x1c, 0x39, 0x20, 0x06,
    0xa2, 0x01, 0x10, 0xa3, 0x87, 0x0a, 0xa6, 0xea, 0xd1, 0x21, 0x20, 0x67, 0x02, 0xa1, 0xca, 0xde,
    0x1a, 0x41, 0x89, 0x4c, 0x10, 0x01, 0x59, 0xd2, 0x1b, 0x24, 0x10, 0x11, 0x08, 0x22, 0x20, 0x0b,
    0x79, 0xb0, 0x3c, 0x0a, 0x30, 0x10, 0x01, 0x59, 0x81, 0xda, 0x03, 0x06, 0x55, 0xfb, 0xff, 0x3f,
    0x60, 0x50, 0xb7, 0x40, 0x4c, 0x88, 0x5c, 0x20, 0x16, 0x1a, 0x44, 0x07, 0x07, 0x62, 0xf7, 0xb0,
    0x40, 0xf5, 0x1e, 0x16, 0x28, 0x88, 0x0e, 0x0b, 0xe4, 0xd3, 0xf2, 0xb0, 0xc0, 0x40, 0x74, 0x50,
    0x20, 0x9f, 0x10, 0x01, 0x39, 0x36, 0x88, 0x0e, 0x1b, 0xe4, 0xe9, 0x14, 0x88, 0x04, 0x06, 0x11,
    0x90, 0x03, 0x3e, 0x51, 0x04, 0xe4, 0xb4, 0x20, 0x02, 0x72, 0xb2, 0x47, 0x49, 0x20, 0x92, 0x13,
    0x44, 0x40, 0xfe, 0xff, 0x03
