    0x46, 0x4f, 0x4d, 0x42, 0x01, 0x00, 0x00, 0x00, 0x2d, 0x05, 0x00, 0x00, 0x12, 0x11, 0x00, 0x00,
    0x44, 0x53, 0x00, 0x01, 0x1a, 0x7d, 0xda, 0x54, 0x98, 0x49, 0x88, 0x00, 0x01, 0x06, 0x18, 0x42,
    0x10, 0x0b, 0x10, 0x22, 0x21, 0x04, 0x12, 0x01, 0xa1, 0xc8, 0x2c, 0x0c, 0x86, 0x10, 0x38, 0x2e,
    0x84, 0x1c, 0x40, 0x48, 0x1c, 0x14, 0x8a, 0x5f, 0x02, 0xfa, 0x13, 0xc8, 0xaf, 0x00, 0x84, 0x0e,
    0x05, 0xc8, 0x14, 0x60, 0x50, 0x80, 0x53, 0x04, 0x11, 0xf4, 0x2a, 0xc0, 0xa6, 0x00, 0x93, 0x02,
    0x2c, 0x0a, 0xd0, 0x2e, 0xc0, 0xb2, 0x00, 0xdd, 0x02, 0xa4, 0xc3, 0x12, 0x91, 0xe0, 0x28, 0x31,
    0xe0, 0x28, 0x9d, 0xd8, 0xc2, 0x0d, 0x1b, 0xbc, 0x50, 0x14, 0xcd, 0x20, 0x4a, 0x82, 0xca, 0x05,
    0xf8, 0x46, 0x10, 0x78, 0xb9, 0x02, 0x24, 0x4f, 0x40, 0x9a, 0x05, 0x18, 0x16, 0x60, 0x5d, 0x80,
    0xec, 0x21, 0x50, 0xa9, 0x43, 0x40, 0xc9, 0x19, 0x02, 0x6a, 0x00, 0xad, 0x4e, 0x40, 0xf8, 0x95,
    0x4e, 0x09, 0x49, 0x10, 0xce, 0x58, 0xc5, 0xe3, 0x6b, 0x16, 0x4d, 0xcf, 0x49, 0xce, 0x31, 0xe4,
    0x78, 0x5c, 0xe8, 0x41, 0xf0, 0x90, 0xa3, 0x45, 0xc5, 0x1a, 0x30, 0x3a, 0x12, 0x84, 0x14, 0x0c,
    0x08, 0x3d, 0x60, 0x78, 0x28, 0x47, 0x77, 0x24, 0xa1, 0x3c, 0xc3, 0xb6, 0x11, 0x84, 0x71, 0x2a,
    0x71, 0xce, 0x3a, 0xca, 0xf1, 0x9c, 0x9a, 0xa7, 0x73, 0x4c, 0x07, 0x74, 0x48, 0x46, 0x39, 0x6e,
    0xe0, 0x32, 0x02, 0x2e, 0xf2, 0x69, 0x60, 0x02, 0xc9, 0x3f, 0x24, 0x48, 0x16, 0x0c, 0x4a, 0xc2,
    0xe8, 0xa9, 0x0b, 0x08, 0xfd, 0xff, 0x81, 0xf9, 0xd9, 0x80, 0x8d, 0xc6, 0x10, 0xa5, 0x8d, 0x13,
    0x3d, 0xc4, 0x53, 0x39, 0xb2, 0x13, 0x39, 0x90, 0x43, 0x63, 0xa8, 0xa7, 0x74, 0x38, 0x85, 0xdd,
    0x01, 0x84, 0x1a, 0xa3, 0x39, 0x28, 0x12, 0x6e, 0x7c, 0x68, 0x89, 0xb0, 0x3a, 0x09, 0xc4, 0x7e,
    0x17, 0xb0, 0xf0, 0x61, 0x09, 0xe3, 0x7c, 0x3d, 0x7c, 0x8b, 0x86, 0x11, 0x5a, 0x41, 0x70, 0x1a,
    0xc4, 0x51, 0x44, 0x09, 0xc3, 0xf0, 0x8c, 0x19, 0xe8, 0xb9, 0x80, 0x21, 0x85, 0x09, 0x7a, 0x02,
    0x41, 0xce, 0x93, 0x61, 0x19, 0xe2, 0x0c, 0x38, 0x56, 0x8c, 0x50, 0x21, 0x31, 0x03, 0x09, 0x7e,
    0x02, 0x5d, 0x63, 0xc8, 0x33, 0x10, 0x99, 0xf2, 0x09, 0x04, 0x89, 0x1e, 0x25, 0xb8, 0x71, 0x8d,
    0xca, 0xc6, 0x74, 0x36, 0xb8, 0x81, 0x99, 0x20, 0xce, 0xe1, 0x61, 0x64, 0x40, 0x68, 0x02, 0xf1,
    0x63, 0x87, 0x4f, 0x60, 0xf7, 0x02, 0xbc, 0x0d, 0x51, 0x10, 0x95, 0xdd, 0x35, 0xa4, 0x0d, 0x42,
    0x28, 0x6d, 0x09, 0xb0, 0x36, 0x59, 0x9d, 0x08, 0x5e, 0x08, 0xa2, 0x1c, 0x6f, 0x84, 0x67, 0x82,
    0x10, 0x51, 0x02, 0x45, 0xa8, 0x10, 0x53, 0x28, 0x71, 0x1b, 0x13, 0xa0, 0x11, 0x42, 0x48, 0x86,
    0x0b, 0xe1, 0x79, 0x87, 0xb1, 0xfd, 0x41, 0x90, 0x60, 0xe7, 0x01, 0xfd, 0x08, 0x2c, 0x09, 0x44,
    0x46, 0xb6, 0x94, 0x80, 0x9c, 0x14, 0x3c, 0x1c, 0x0f, 0xa0, 0xf9, 0x99, 0x69, 0x54, 0x4c, 0x02,
    0xa0, 0x34, 0x80, 0x48, 0xd4, 0x59, 0x84, 0x12, 0x58, 0xca, 0xc9, 0x80, 0x5c, 0x1f, 0x3c, 0x92,
    0x03, 0x3c, 0x75, 0xdf, 0x0d, 0xce, 0xcc, 0x5f, 0x13, 0x6f, 0xc1, 0x67, 0x04, 0x3e, 0x06, 0x0f,
    0xf5, 0x10, 0x02, 0x1e, 0x21, 0x3b, 0x24, 0x18, 0x10, 0xef, 0xfd, 0x56, 0x40, 0xe6, 0x62, 0x82,
    0xff, 0x7f, 0x40, 0x1f, 0x14, 0x9e, 0x0f, 0xc0, 0x32, 0xcc, 0x33, 0x3e, 0x86, 0x8a, 0xa7, 0x86,
    0x38, 0x12, 0xf0, 0xa9, 0x9c, 0x14, 0x3b, 0x93, 0xf0, 0xd1, 0xf1, 0x51, 0xf8, 0xec, 0x70, 0xbe,
    0xc5, 0x1e, 0x21, 0xa8, 0xac, 0x63, 0x04, 0x7a, 0xde, 0x47, 0x18, 0xf0, 0xa5, 0xa1, 0xd9, 0xcb,
    0x09, 0x21, 0x78, 0x1d, 0xf0, 0x8d, 0xc1, 0xe7, 0x18, 0xcb, 0x3b, 0x88, 0x80, 0x08, 0xfe, 0x7d,
    0x01, 0x77, 0x04, 0x01, 0x4e, 0x09, 0xdf, 0x04, 0x26, 0x50, 0x9c, 0xb7, 0x80, 0xe2, 0xad, 0x93,
    0xc2, 0xd8, 0xc3, 0x11, 0x04, 0xba, 0x24, 0x38, 0xd4, 0x08, 0x7d, 0x0c, 0x38, 0xfd, 0x03, 0x3d,
    0x91, 0x37, 0x04, 0x4f, 0xee, 0x59, 0x04, 0xc6, 0x49, 0xc1, 0xd3, 0x3a, 0x29, 0xdf, 0x5a, 0x3c,
    0x28, 0xc3, 0x24, 0xf0, 0x28, 0x18, 0x1a, 0x3f, 0x02, 0xb0, 0x93, 0x00, 0x1f, 0xa8, 0x8f, 0x0d,
    0xec, 0x9e, 0xe3, 0xbb, 0xc1, 0x3b, 0x8e, 0xcf, 0x19, 0xfe, 0x21, 0xf1, 0xa3, 0x0d, 0xee, 0x9c,
    0x00, 0xe7, 0xff, 0x7f, 0x4e, 0xe0, 0x67, 0x00, 0x76, 0x46, 0x08, 0x7c, 0xd0, 0x9e, 0xf0, 0x7b,
    0x82, 0x87, 0xc3, 0x40, 0x5e, 0x6d, 0xf0, 0xa7, 0x0f, 0xbc, 0xc7, 0xd3, 0x90, 0x40, 0x4f, 0xe3,
    0xe9, 0x83, 0x9f, 0x31, 0x9e, 0x3c, 0xe2, 0x84, 0x78, 0x11, 0x78, 0xe6, 0x88, 0xf1, 0xf4, 0x61,
    0x9c, 0xd7, 0x87, 0x38, 0x4f, 0x1f, 0x76, 0x76, 0xe9, 0xd0, 0xfd, 0xc3, 0x97, 0x10, 0x9f, 0x08,
    0xa2, 0xbd, 0x7f, 0x18, 0x2a, 0xcc, 0x73, 0x44, 0xb0, 0xe0, 0x41, 0xde, 0x40, 0xe2, 0xc4, 0x0c,
    0x13, 0xe4, 0xe9, 0x83, 0x9d, 0x69, 0xc0, 0x29, 0xe8, 0x61, 0xa4, 0x23, 0x96, 0xcf, 0x46, 0x86,
    0xe7, 0x27, 0x06, 0x9f, 0x0d, 0x3c, 0xb4, 0x03, 0xf7, 0xdd, 0xc2, 0x20, 0xe7, 0xe8, 0x53, 0xc3,
    0x43, 0x81, 0xc7, 0xc0, 0x6e, 0x0b, 0x3e, 0x06, 0xf8, 0x94, 0x80, 0x3f, 0x47, 0x04, 0x7c, 0x3d,
    0x78, 0x06, 0x81, 0x75, 0x16, 0xc1, 0x8f, 0xe8, 0x49, 0x03, 0xf6, 0x78, 0x7c, 0xa1, 0x62, 0x77,
    0x8b, 0x87, 0x22, 0x32, 0x08, 0xd4, 0xc8, 0x0c, 0xed, 0x49, 0x9f, 0xd6, 0x6b, 0x81, 0xcf, 0x55,
    0x26, 0xf0, 0x01, 0xc4, 0xa7, 0x29, 0x8f, 0x07, 0xfc, 0xd7, 0x93, 0xe7, 0x04, 0x86, 0xed, 0xd3,
    0x82, 0xb1, 0x12, 0xfc, 0xff, 0x9f, 0xb0, 0xc0, 0x73, 0x6c, 0xc0, 0x5c, 0xb0, 0x60, 0x1e, 0x47,
    0x80, 0x87, 0xe0, 0x73, 0x1a, 0xe8, 0x8e, 0x62, 0xe0, 0x4b, 0xfe, 0x06, 0xd0, 0xb9, 0xc3, 0xa9,
    0x41, 0x64, 0xe3, 0x48, 0x44, 0x4f, 0x21, 0xd6, 0x04, 0xa4, 0x31, 0xb0, 0x4b, 0x08, 0x47, 0x39,
    0x0a, 0x9f, 0x6a, 0x3c, 0x38, 0x0f, 0xec, 0x80, 0x42, 0x04, 0xf2, 0xf9, 0x80, 0xa5, 0x5f, 0x81,
    0x86, 0xe0, 0x73, 0x81, 0x73, 0x93, 0x28, 0xf9, 0xd8, 0x28, 0x9c, 0xb3, 0x1e, 0x48, 0x28, 0x88,
    0x01, 0x1d, 0x04, 0x42, 0x4e, 0x8e, 0x0a, 0xa8, 0xb3, 0x8a, 0x8f, 0x57, 0x1e, 0xc6, 0x03, 0x05,
    0xbb, 0x04, 0xf9, 0xae, 0xe2, 0xa3, 0xd5, 0x13, 0x05, 0x3b, 0x00, 0xf8, 0xac, 0xc0, 0xff, 0x33,
    0xbe, 0x3c, 0x18, 0xdd, 0x6a, 0xce, 0x2b, 0x28, 0x30, 0x1f, 0x47, 0x38, 0x41, 0x5d, 0xf7, 0x20,
    0xd0, 0x1c, 0x44, 0x9e, 0x43, 0x12, 0xd4, 0x87, 0x4b, 0xff, 0xff, 0xe7, 0x05, 0xb8, 0x40, 0xbe,
    0x1c, 0xf8, 0x30, 0xf0, 0x80, 0xc0, 0xc6, 0xf0, 0x3c, 0x60, 0x34, 0xa3, 0xf3, 0xf0, 0x93, 0x45,
    0x5d, 0x1b, 0x3d, 0x59, 0x83, 0x78, 0xb2, 0x8e, 0x32, 0x59, 0xf4, 0x4c, 0x7c, 0xb9, 0xf0, 0x84,
    0x4e, 0x29, 0xc8, 0x39, 0x7a, 0xc2, 0xbe, 0x8c, 0xc0, 0x3a, 0x09, 0x84, 0x7c, 0x66, 0xf0, 0x34,
    0x7c, 0x89, 0xc2, 0x4f, 0x96, 0x8f, 0xc5, 0x97, 0x0d, 0xf8, 0xa3, 0xc5, 0x12, 0x14, 0x38, 0x5b,
    0x90, 0xc3, 0x63, 0x82, 0x8d, 0x8a, 0xde, 0x1e, 0x3c, 0x3c, 0x7e, 0x39, 0xf0, 0x7c, 0x9e, 0x11,
    0x8e, 0xf2, 0x45, 0xc4, 0xa7, 0x04, 0x4f, 0xc7, 0x47, 0x3a, 0x0f, 0x91, 0xdd, 0x8e, 0x60, 0x4d,
    0xe4, 0xa4, 0x7d, 0x5b, 0x38, 0xd9, 0xa0, 0x2f, 0x69, 0x98, 0x6b, 0x09, 0xee, 0x76, 0x04, 0x77,
    0x5a, 0xa7, 0xf7, 0xfe, 0x87, 0x39, 0x59, 0x30, 0xa0, 0x17, 0x8c, 0xc3, 0x7d, 0xcf, 0x31, 0x28,
    0x26, 0xe0, 0x67, 0xd1, 0xb7, 0x2b, 0x1a, 0x09, 0x06, 0x75, 0x81, 0xf8, 0xff, 0xbf, 0x60, 0x01,
    0x4f, 0x64, 0x5f, 0xb0, 0x30, 0x01, 0x06, 0x0a, 0x9a, 0x79, 0x3e, 0x39, 0xc2, 0xbb, 0x00, 0x31,
    0xac, 0xe0, 0x2f, 0xa8, 0x1c, 0xe6, 0x81, 0xcd, 0x28, 0x47, 0xe3, 0x43, 0x9d, 0x2f, 0x8c, 0xec,
    0x72, 0xf2, 0xf2, 0x64, 0x58, 0x76, 0xb4, 0xc3, 0xdc, 0xa2, 0xc0, 0x79, 0x75, 0x84, 0x7d, 0xc8,
    0x7a, 0x92, 0x78, 0x76, 0x34, 0xc4, 0xfb, 0x96, 0xef, 0x58, 0x8f, 0x59, 0x81, 0xce, 0xef, 0x21,
    0x2b, 0xd0, 0xdb, 0x96, 0xef, 0x13, 0x41, 0x1e, 0xb8, 0x0c, 0xf7, 0x14, 0x11, 0x2e, 0xc6, 0x53,
    0x97, 0xe1, 0x7c, 0x6e, 0x34, 0xca, 0x81, 0x04, 0x7f, 0xf5, 0x0a, 0xf9, 0x04, 0xe9, 0xdb, 0x16,
    0x13, 0xf1, 0x74, 0xd0, 0xb9, 0xc0, 0x17, 0x2c, 0x60, 0xf8, 0xff, 0xbf, 0x60, 0x01, 0xf6, 0x84,
    0x9c, 0x30, 0x74, 0x92, 0xc1, 0x8d, 0xc2, 0x97, 0x05, 0x0c, 0xc1, 0xe0, 0x97, 0x6c, 0x7a, 0x05,
    0x05, 0x9e, 0xc7, 0x13, 0xf0, 0x9c, 0x0e, 0x9e, 0xb7, 0x8c, 0xf3, 0x9a, 0xeb, 0xe3, 0x84, 0xaf,
    0xb9, 0x98, 0xc9, 0xbf, 0x51, 0xf8, 0x1a, 0x71, 0xf8, 0xec, 0xa0, 0x03, 0xbe, 0x6b, 0x8f, 0x2f,
    0x69, 0xe0, 0x39, 0x6f, 0xb3, 0xff, 0x3f, 0xbe, 0x27, 0x8f, 0xbb, 0xa1, 0x01, 0x93, 0x31, 0xe1,
    0x6e, 0x68, 0xe0, 0x38, 0x8d, 0xf1, 0x4b, 0x39, 0x1c, 0x85, 0x36, 0x7d, 0x6a, 0x34, 0x6a, 0xd5,
    0xa0, 0x4c, 0x8d, 0x32, 0x0d, 0x6a, 0xf5, 0xa9, 0xd4, 0x98, 0xb1, 0x13, 0x81, 0x65, 0x1f, 0x71,
    0x74, 0x4a, 0xb0, 0xdc, 0x87, 0x82, 0x4e, 0x3f, 0xe4, 0x4f, 0x2a, 0x20, 0xc7, 0x04, 0xa1, 0xc1,
    0x4c, 0xdc, 0x84, 0x05, 0xa2, 0x94, 0x20, 0x02, 0x72, 0x22, 0x15, 0x40, 0x2c, 0x1f, 0x88, 0x80,
    0xac, 0x44, 0x07, 0x08, 0xcb, 0x01, 0x42, 0xf3, 0xf8, 0x00, 0x61, 0xff, 0x7f
